Associational and Inferential Techniques
…
I end up doing it this way since its less code. {tidyverse} for the win.

Correlation is super useful as preliminary exploratory data analysis, and for checking for multicollinearity concerns. But be mindful. Correlation may mislead you. Lets start with Anscombes quartets.

Anscombes Quartets

Francis J. Anscombes (1973) famous quartet is a go-to illustration for how simple associational analyses, even linear regression, can mislead the researcher if s/he is not taking care to actually look at the underlying data. Here, Anscombe created four data sets, each with 11 observations and two variables (x and y). All four quartets have the same mean for x and y, the same variance for x and y, the same regression line (y-intercept and slope for x), the same residual sum of squares, and the same correlation. However, they look quite differently.

Lets look at the data first.

?quartets
quartets

## # A tibble: 44 x 3
##        x     y group    
##    <dbl> <dbl> <chr>    
##  1    10  8.04 Quartet 1
##  2     8  6.95 Quartet 1
##  3    13  7.58 Quartet 1
##  4     9  8.81 Quartet 1
##  5    11  8.33 Quartet 1
##  6    14  9.96 Quartet 1
##  7     6  7.24 Quartet 1
##  8     4  4.26 Quartet 1
##  9    12 10.8  Quartet 1
## 10     7  4.82 Quartet 1
## #  with 34 more rows
…
Basically: look at your data and be mindful that you can be easily misled if you dont do this.

The Datasaurus

If you want a more extreme example of the same basic thing, check out the Datasaurus data in {stevedata}.

?Datasaurus
Datasaurus

## # A tibble: 1,846 x 3
##    dataset     x     y
##    <chr>   <dbl> <dbl>
##  1 dino     55.4  97.2
##  2 dino     51.5  96.0
##  3 dino     46.2  94.5
##  4 dino     42.8  91.4
##  5 dino     40.8  88.3
##  6 dino     38.7  84.9
##  7 dino     35.6  79.9
##  8 dino     33.1  77.6
##  9 dino     29.0  74.5
## 10 dino     26.2  71.4
## #  with 1,836 more rows
…
The regression line is basically the same.

Datasaurus %>%
  nest(data = -dataset) %>%
  mutate(fit = map(data, ~lm(y ~ x, data=.)),
         tidied = map(fit, broom::tidy)) %>%
  # unnest the table to show us what we want.
  unnest(tidied) %>%
  # select just what we want to see.
  select(dataset, term:p.value)

## # A tibble: 26 x 6
##    dataset term        estimate std.error statistic  p.value
##    <chr>   <chr>          <dbl>     <dbl>     <dbl>    <dbl>
##  1 dino    (Intercept)  53.5        7.69      6.95  1.29e-10
##  2 dino    x            -0.104      0.136    -0.764 4.46e- 1
##  3 away    (Intercept)  53.4        7.69      6.94  1.31e-10
##  4 away    x            -0.103      0.135    -0.760 4.48e- 1
##  5 h_lines (Intercept)  53.2        7.70      6.91  1.53e-10
##  6 h_lines x            -0.0992     0.136    -0.732 4.66e- 1
##  7 v_lines (Intercept)  53.9        7.69      7.01  9.38e-11
##  8 v_lines x            -0.112      0.135    -0.824 4.12e- 1
##  9 x_shape (Intercept)  53.6        7.69      6.97  1.17e-10
## 10 x_shape x            -0.105      0.135    -0.778 4.38e- 1
## #  with 16 more rows
…
Always look at your data. Roar.

Simpsons Paradox

Simpsons paradox is a well-known problem of correlation in which a correlation analysis, almost always done in a bivariate context, may reveal a relationship that is reversed upon the introduction of some third variable. Every stylized case Ive seen of Simpsons paradox conceptualizes the third factor as some kind of grouping/category effect (certainly of interest to me as a mixed effects modeler), even if this may not be necessary to show a Simpson reversal.

One of the classic pedagogical cases of a Simpsons paradox is from Deborah Lynne Gubers (1999) study of public school expenditures and SAT performance in 1994-95 across all 50 states. There are other cases Ive seen of a Simpson reversal, incidentally most involving education, but these data were readily available and are part of my {stevedata} package as the Guber99 data frame.

?Guber99
Guber99

## # A tibble: 50 x 8
##    state       expendpp ptratio tsalary perctakers verbal  math total
##    <chr>          <dbl>   <dbl>   <dbl>      <int>  <int> <int> <int>
##  1 Alabama         4.40    17.2    31.1          8    491   538  1029
##  2 Alaska          8.96    17.6    48.0         47    445   489   934
##  3 Arizona         4.78    19.3    32.2         27    448   496   944
##  4 Arkansas        4.46    17.1    28.9          6    482   523  1005
##  5 California      4.99    24      41.1         45    417   485   902
##  6 Colorado        5.44    18.4    34.6         29    462   518   980
##  7 Connecticut     8.82    14.4    50.0         81    431   477   908
##  8 Delaware        7.03    16.6    39.1         68    429   468   897
##  9 Florida         5.72    19.1    32.6         48    420   469   889
## 10 Georgia         5.19    16.3    32.3         65    406   448   854
## #  with 40 more rows
…
At every quartile of SAT test-taker percentage, there is a positive correlation of student expenditures on SAT performance statewide. The post on my website has a fancy pair of graphs to drive this home. ## Ecological Fallacy

We have Robinson (1950) to thank by showing that ecological correlations are not substitutes for individual correlations. These data are available as illiteracy30 in my {stevedata} package.

?illiteracy30
illiteracy30

## # A tibble: 49 x 11
##    state    pop pop_il nwhite nwhite_il fpwhite fpwhite_il fbwhite fbwhite_il
##    <chr>  <dbl>  <dbl>  <dbl>     <dbl>   <dbl>      <dbl>   <dbl>      <dbl>
##  1 Maine 6.43e5  17172 4.06e5      5745  136817       2872   98310       8393
##  2 New  3.82e5  10231 1.88e5      1155  111717       1211   81496       7820
##  3 Verm 2.92e5   6299 1.84e5      1921   65382       1340   41695       3005
##  4 Mass 3.51e6 124158 1.08e6      3247 1339077       6405 1042889     111568
##  5 Rhod 5.60e5  27536 1.55e5       741  227909       1991  168975      24124
##  6 Conn 1.32e6  59874 4.12e5      1271  507112       2230  378586      55136
##  7 New  1.05e7 388883 3.49e6     19712 3506583      14942 3150593     341345
##  8 New  3.33e6 128022 1.22e6      6336 1109603       5236  833727     107192
##  9 Penn 7.73e6 240323 4.18e6     26002 1972545      10515 1221729     187942
## 10 Ohio  5.43e6 123804 3.41e6     26588 1129731       5799  637535      74131
## #  with 39 more rows, and 2 more variables: black <dbl>, black_il <dbl>
…
from a population of N units

the sample means will be normally distributed

Further: the mean of sample means would equal the population mean

Random sampling error would equal the standard error of the sample means.

Lets illustrate this with some thermometer rating data. This is Trumps therm score from the ANES exploratory testing survey done April 10-18, 2020. I love thermometer data to teach central limit theorem because it shows the underlying principles, even in data that are noisy/ugly as hell. First, read more about the data and see it here. Just so were on the same page: higher values indicate warmer attitudes toward Trump (i.e.more favorable attitudes). Lower values indicate colder attitudes toward Trump (i.e.less favorable attitudes).

?therms
therms

## # A tibble: 3,080 x 2
##    fttrump1 ftobama1
##       <dbl>    <dbl>
##  1       80       75
##  2       85       15
##  3       NA       NA
##  4       80       50
##  5        0      100
##  6       35        5
##  7       30       90
##  8       60       50
##  9        0       85
## 10        1       85
## #  with 3,070 more rows
…
