The Basics of Bayesian Inference
…
The takeaway, as it was in Western and Jackman (1994) and in the replication on my blog: if you were on Team Logged Labor Force Size, the data observed suggest the effect is there whether you built in strong prior beliefs it should be there OR you built in ignorance priors and were agnostic to the effect of that variable. If you were on Team Industrial Concentration, the effect is there only if you built in strong prior beliefs that it should be there. Thus, given the nature of these analyses, youre probably going to give the day to Team Logged Labor Force Size and tell Team Industrial Concentration that youd have to build in strong prior beliefs about the effect to result in a posterior distribution of results consistent with the prior beliefs.

Dedicated Bayesian researchers will say that this is just a thing you can do with Bayes that you really cant do with standard models. Theyll probably also discourage you from thinking too much about this or that its all you can do with Bayes, but I think it as a nice place to start thinking about Bayes.

Related: Leverage the Prior over Weak Data

You could also use the prior distribution as a sort of leverage or hedge over weak data. Consider one of my go-to linear models, which explains immigration sentiment as a function of various things in the United Kingdom. Here would be the data, the codebook, and the descriptive statistics.

ESS9GB

## # A tibble: 1,905 x 19
##    name  essround edition  idno cntry region brncntr stintrvw   endintrvw 
##    <chr>    <dbl> <chr>   <dbl> <chr> <chr>    <dbl> <date>     <date>    
##  1 ESS9        9 1.2        39 GB    West        1 2018-09-11 2018-09-11
##  2 ESS9        9 1.2       135 GB    South       1 2018-09-07 2018-09-07
##  3 ESS9        9 1.2       142 GB    South       1 2018-11-03 2018-11-03
##  4 ESS9        9 1.2       146 GB    North       1 2018-10-06 2018-10-17
##  5 ESS9        9 1.2       164 GB    North       1 2018-10-31 2018-10-31
##  6 ESS9        9 1.2       191 GB    North       1 2018-10-27 2018-10-27
##  7 ESS9        9 1.2       213 GB    South       1 2018-11-08 2018-11-08
##  8 ESS9        9 1.2       238 GB    London       1 2019-01-31 2019-01-31
##  9 ESS9        9 1.2       245 GB    East        1 2018-09-07 2018-09-07
## 10 ESS9        9 1.2       265 GB    East        1 2019-02-10 2019-02-10
## #  with 1,895 more rows, and 10 more variables: imbgeco <dbl>, imueclt <dbl>,
## #   imwbcnt <dbl>, immigsent <dbl>, agea <dbl>, female <dbl>, eduyrs <dbl>,
## #   uempla <dbl>, hinctnta <dbl>, lrscale <dbl>
…
Instead, we get this result in which the standard error for the estimate swallows the coefficient. Curious as to why that happened, I look at the data and see how many unemployed people I have in the model.

ESS9GB %>% filter(uempla == 1) %>%
  select(immigsent:lrscale) %>%
  na.omit

## # A tibble: 30 x 7
##    immigsent  agea female eduyrs uempla hinctnta lrscale
##        <dbl> <dbl>  <dbl>  <dbl>  <dbl>    <dbl>   <dbl>
##  1        18    19      0     13      1        1       7
##  2        25    18      1     13      1        1       3
##  3        27    58      1     11      1        1       4
##  4        10    30      0     11      1        1       5
##  5         8    45      1     17      1        1       5
##  6        11    58      0     11      1        2       1
##  7        11    61      0     11      1        1       6
##  8        12    47      1     13      1        2       5
##  9        17    57      1     11      1        1       4
## 10        21    55      1     15      1        1       5
## #  with 20 more rows
…
