Some Basics of Descriptive Inference
…
Identifying the Mean

Means are what would want in most applications, provided your data are interval and could be plausibly described by the mean. The mean is the statistical average of the data. They are reserved for data where numerical values communicate exact differences.

For example, lets go back to our pwt_sample data and calculate the mean for the real GDP variable for each year. Like the median() function, mean() throws up an NA if there are missing observations. We can suppress that the same way.

pwt_sample %>%
  group_by(year) %>%
  summarize(meanrgdpna = mean(rgdpna, na.rm=T))

## `summarise()` ungrouping output (override with `.groups` argument)

## # A tibble: 68 x 2
##     year meanrgdpna
##    <dbl>      <dbl>
##  1  1950    266360.
##  2  1951    261707.
##  3  1952    273036.
##  4  1953    287153.
##  5  1954    294913.
##  6  1955    314937.
##  7  1956    327021.
##  8  1957    338059.
##  9  1958    343107.
## 10  1959    363481.
## #  with 58 more rows
…
A related calculation for interval-level variables is the standard deviation. The standard deviation (which requires the mean) gives an estimate of just how much dispersion is around the mean. Higher standard deviation = more dispersion around the mean. You can calculate it with the sd() function in R, again being mindful of NAs. Here would be how to calculate the mean real GDP and standard deviation for the GDP variable for each year.

pwt_sample %>%
  group_by(year) %>%
  mutate(rgdpb = rgdpna/1000) %>%
  summarize(meanrgdpb = mean(rgdpb, na.rm = T),
            sd = sd(rgdpb,na.rm=T)) 

## `summarise()` ungrouping output (override with `.groups` argument)

## # A tibble: 68 x 3
##     year meanrgdpb    sd
##    <dbl>     <dbl> <dbl>
##  1  1950      266.  502.
##  2  1951      262.  520.
##  3  1952      273.  542.
##  4  1953      287.  568.
##  5  1954      295.  566.
##  6  1955      315.  607.
##  7  1956      327.  621.
##  8  1957      338.  635.
##  9  1958      343.  632.
## 10  1959      363.  676.
## #  with 58 more rows
…
