An Intro to R, Rstudio, and ‘{tidyverse}’
…
select()

select() is useful for basic (but important) data management. You can use it to grab (or omit) columns from data. For example, let’s say I wanted to grab all the columns in the data. I could do that with the following command.

pwt_sample %>% select(everything())  # grab everything

## # A tibble: 1,428 x 7
##    country   isocode  year   pop    hc  rgdpna labsh
##    <chr>     <chr>   <dbl> <dbl> <dbl>   <dbl> <dbl>
##  1 Australia AUS      1950  8.39  2.67 119510. 0.680
##  2 Australia AUS      1951  8.63  2.67 122550. 0.680
##  3 Australia AUS      1952  8.82  2.68 117534. 0.680
##  4 Australia AUS      1953  8.99  2.69 130285. 0.680
##  5 Australia AUS      1954  9.19  2.70 140700. 0.680
##  6 Australia AUS      1955  9.41  2.70 146250. 0.680
##  7 Australia AUS      1956  9.64  2.71 146586. 0.680
##  8 Australia AUS      1957  9.85  2.72 149796. 0.680
##  9 Australia AUS      1958 10.1   2.73 159957. 0.680
## 10 Australia AUS      1959 10.3   2.74 169756. 0.680
## # … with 1,418 more rows

Here’s if I wanted everything except wanted to drop the labor share of income variable.

pwt_sample %>% select(-labsh) # grab everything, but drop the labsh variable.

## # A tibble: 1,428 x 6
##    country   isocode  year   pop    hc  rgdpna
##    <chr>     <chr>   <dbl> <dbl> <dbl>   <dbl>
##  1 Australia AUS      1950  8.39  2.67 119510.
##  2 Australia AUS      1951  8.63  2.67 122550.
##  3 Australia AUS      1952  8.82  2.68 117534.
##  4 Australia AUS      1953  8.99  2.69 130285.
##  5 Australia AUS      1954  9.19  2.70 140700.
##  6 Australia AUS      1955  9.41  2.70 146250.
##  7 Australia AUS      1956  9.64  2.71 146586.
##  8 Australia AUS      1957  9.85  2.72 149796.
##  9 Australia AUS      1958 10.1   2.73 159957.
## 10 Australia AUS      1959 10.3   2.74 169756.
## # … with 1,418 more rows

Here’s a more typical case. Assume you’re working with a large data object and you just want a handful of things. In this case, we have all these economic data on these 21 countries (ed. we really don’t, but roll with it), but we just want the GDP data along with the important identifying information for country and year. Here’s how we’d do that in the select() function, again with some assistance from the pipe.

pwt_sample %>% select(country, year, rgdpna) # grab just these three columns.

## # A tibble: 1,428 x 3
##    country    year  rgdpna
##    <chr>     <dbl>   <dbl>
##  1 Australia  1950 119510.
##  2 Australia  1951 122550.
##  3 Australia  1952 117534.
##  4 Australia  1953 130285.
##  5 Australia  1954 140700.
##  6 Australia  1955 146250.
##  7 Australia  1956 146586.
##  8 Australia  1957 149796.
##  9 Australia  1958 159957.
## 10 Australia  1959 169756.
## # … with 1,418 more rows

group_by()

I think the pipe is probably the most important function in the {tidyverse} even as a critical reader might note that the pipe is 1) a port from another package ({magrittr}) and 2) now a part of base R in a different terminology. Thus, the critical reader (and probably me, depending on my mood) may note that group_by() is probably the most important component of the {tidyverse}. Basically, group_by() allows you to “split” the data into various subsets, “apply” various functions to them, and “combine” them into one output. You might see that terminology “split-apply-combine” as you learn more about the {tidyverse} and its development.

Here, let’s do a simple group_by() exercise, while also introducing you to another function: slice(). We’re going to group by country in pwt_sample and “slice” the first observation for each group/country. Notice how we can chain these together with a pipe operator.

# Notice we can chain some pipes together
pwt_sample %>%
  # group by country
  group_by(country) %>%
  # Get me the first observation, by group.
  slice(1)

## # A tibble: 21 x 7
## # Groups:   country [21]
##    country   isocode  year   pop    hc  rgdpna  labsh
##    <chr>     <chr>   <dbl> <dbl> <dbl>   <dbl>  <dbl>
##  1 Australia AUS      1950  8.39  2.67 119510.  0.680
##  2 Austria   AUT      1950  6.98  2.55  47147.  0.637
##  3 Belgium   BEL      1950  8.63  2.20  76035.  0.651
##  4 Canada    CAN      1950 13.8   2.48 179072.  0.768
##  5 Chile     CHL      1950 NA    NA        NA  NA    
##  6 Denmark   DNK      1950  4.27  2.84  51441.  0.645
##  7 Finland   FIN      1950  4.01  2.12  27678.  0.669
##  8 France    FRA      1950 42.6   2.18 333156.  0.685
##  9 Germany   DEU      1950 68.7   2.43 442402.  0.672
## 10 Greece    GRC      1950 NA    NA        NA  NA    
## # … with 11 more rows
…
## # A tibble: 1 x 1
##       n
##   <int>
## 1  1428

More importantly, summarize() works wonderfully with group_by(). For example, for each country (group_by(country)), let’s get the maximum GDP observed in the data.

pwt_sample %>%
  group_by(country) %>%
  # Give me the max real GDP observed in the data.
  summarize(maxgdp = max(rgdpna, na.rm=T))

## `summarise()` ungrouping output (override with `.groups` argument)

## # A tibble: 21 x 2
##    country     maxgdp
##    <chr>        <dbl>
##  1 Australia 1215688 
##  2 Austria    380620.
##  3 Belgium    453158.
##  4 Canada    1647159.
##  5 Chile      399417.
##  6 Denmark    274272.
##  7 Finland    217679.
##  8 France    2565994.
##  9 Germany   3805884 
## 10 Greece     325783.
## # … with 11 more rows

One downside (or feature, depending on your perspective) to summarize() is that it condenses data and discards stuff that’s not necessary for creating the condensed output. In the case above, notice we didn’t ask for what year we observed the maximum GDP for a given country. We just asked for the maximum. If you wanted something that would also tell you what year that particular observation was, you’ll probably want a slice() command in lieu of summarize(). Observe:

pwt_sample %>%
  group_by(country) %>%
  slice(which(rgdpna == max(rgdpna, na.rm=T)))

## # A tibble: 21 x 7
## # Groups:   country [21]
##    country   isocode  year   pop    hc   rgdpna labsh
##    <chr>     <chr>   <dbl> <dbl> <dbl>    <dbl> <dbl>
##  1 Australia AUS      2017 24.5   3.52 1215688  0.586
##  2 Austria   AUT      2017  8.74  3.36  380620. 0.573
##  3 Belgium   BEL      2017 11.4   3.14  453158. 0.610
##  4 Canada    CAN      2017 36.6   3.71 1647159. 0.651
##  5 Chile     CHL      2017 18.1   3.11  399417. 0.440
##  6 Denmark   DNK      2017  5.73  3.56  274272. 0.613
##  7 Finland   FIN      2008  5.32  3.29  217679. 0.575
##  8 France    FRA      2017 67.2   3.19 2565994. 0.632
##  9 Germany   DEU      2017 82.1   3.67 3805884  0.618
## 10 Greece    GRC      2007 11.4   2.88  325783. 0.542
## # … with 11 more rows

This is a convoluted way of thinking about summarize(), but you’ll probably find yourself using it a lot.

mutate()

mutate() is probably the most important {tidyverse} function for data management/recoding. It will allow you to create new columns while retaining the original dimensions of the data. Consider it the sister function to summarize(). But, where summarize() discards, mutate() retains.

Let’s do something simple with mutate(). For example, the rgdpna column is real GDP in million 2011 USD. What if we wanted to convert that million to billions? This is simple with mutate(). Helpfully, you can create a new column that has both the original/raw data and a new/recoded variable. This is great for reproducibility in your data management.

pwt_sample %>%
  # Convert rgdpna from real GDP in millions to real GDP in billions
  mutate(rgdpnab = rgdpna/1000)

## # A tibble: 1,428 x 8
##    country   isocode  year   pop    hc  rgdpna labsh rgdpnab
##    <chr>     <chr>   <dbl> <dbl> <dbl>   <dbl> <dbl>   <dbl>
##  1 Australia AUS      1950  8.39  2.67 119510. 0.680    120.
##  2 Australia AUS      1951  8.63  2.67 122550. 0.680    123.
##  3 Australia AUS      1952  8.82  2.68 117534. 0.680    118.
##  4 Australia AUS      1953  8.99  2.69 130285. 0.680    130.
##  5 Australia AUS      1954  9.19  2.70 140700. 0.680    141.
##  6 Australia AUS      1955  9.41  2.70 146250. 0.680    146.
##  7 Australia AUS      1956  9.64  2.71 146586. 0.680    147.
##  8 Australia AUS      1957  9.85  2.72 149796. 0.680    150.
##  9 Australia AUS      1958 10.1   2.73 159957. 0.680    160.
## 10 Australia AUS      1959 10.3   2.74 169756. 0.680    170.
## # … with 1,418 more rows

Notice that mutate() also works beautifully with group_by(). For example, let’s assume—for whatever reason—we wanted a new variable that divided the real GDP variable over the observed maximum real GDP for a given country. I don’t know know why we’d want that, but we could do it with group_by().

pwt_sample %>%
  group_by(country) %>%
  # divide rgdpna over the country's max, for some reason.
  mutate(rgdpnaprop = rgdpna/max(rgdpna, na.rm=T))

## # A tibble: 1,428 x 8
## # Groups:   country [21]
##    country   isocode  year   pop    hc  rgdpna labsh rgdpnaprop
##    <chr>     <chr>   <dbl> <dbl> <dbl>   <dbl> <dbl>      <dbl>
##  1 Australia AUS      1950  8.39  2.67 119510. 0.680     0.0983
##  2 Australia AUS      1951  8.63  2.67 122550. 0.680     0.101 
##  3 Australia AUS      1952  8.82  2.68 117534. 0.680     0.0967
##  4 Australia AUS      1953  8.99  2.69 130285. 0.680     0.107 
##  5 Australia AUS      1954  9.19  2.70 140700. 0.680     0.116 
##  6 Australia AUS      1955  9.41  2.70 146250. 0.680     0.120 
##  7 Australia AUS      1956  9.64  2.71 146586. 0.680     0.121 
##  8 Australia AUS      1957  9.85  2.72 149796. 0.680     0.123 
##  9 Australia AUS      1958 10.1   2.73 159957. 0.680     0.132 
## 10 Australia AUS      1959 10.3   2.74 169756. 0.680     0.140 
## # … with 1,418 more rows

filter()

filter() is a great diagnostic tool for subsetting your data to look at particular observations. Notice one little thing, especially if you’re new to programming. The use of double-equal signs (==) is for making logical statements where as single-equal signs (=) is for object assignment or column creation. If you’re using filter(), you’re probably wanting to find cases where something equals something (==), is greater than something (>), equal to or greater than something (>=), is less than something (<), or is less than or equal to something (<=).

Here, let’s grab just the American observations by filtering to where isocode == “USA”.

pwt_sample %>%
  # give me just the USA observations
  filter(isocode == "USA")

## # A tibble: 68 x 7
##    country                  isocode  year   pop    hc   rgdpna labsh
##    <chr>                    <chr>   <dbl> <dbl> <dbl>    <dbl> <dbl>
##  1 United States of America USA      1950  156.  2.58 2246944. 0.628
##  2 United States of America USA      1951  158.  2.60 2428017  0.634
##  3 United States of America USA      1952  161.  2.61 2526887. 0.645
##  4 United States of America USA      1953  164.  2.62 2645510. 0.644
##  5 United States of America USA      1954  167.  2.63 2630592. 0.637
##  6 United States of America USA      1955  170.  2.65 2817940  0.627
##  7 United States of America USA      1956  173.  2.66 2878023  0.640
##  8 United States of America USA      1957  176.  2.68 2938621. 0.639
##  9 United States of America USA      1958  179.  2.69 2917016. 0.636
## 10 United States of America USA      1959  182.  2.71 3118356. 0.629
## # … with 58 more rows

We could also use filter() to select observations from the most recent year.

pwt_sample %>%
  # give me the observations from the most recent year.
  filter(year == max(year))

## # A tibble: 21 x 7
##    country     isocode  year   pop    hc   rgdpna labsh
##    <chr>       <chr>   <dbl> <dbl> <dbl>    <dbl> <dbl>
##  1 Australia   AUS      2017 24.5   3.52 1215688  0.586
##  2 Austria     AUT      2017  8.74  3.36  380620. 0.573
##  3 Belgium     BEL      2017 11.4   3.14  453158. 0.610
##  4 Canada      CAN      2017 36.6   3.71 1647159. 0.651
##  5 Switzerland CHE      2017  8.48  3.69  527023. 0.650
##  6 Chile       CHL      2017 18.1   3.11  399417. 0.440
##  7 Germany     DEU      2017 82.1   3.67 3805884  0.618
##  8 Denmark     DNK      2017  5.73  3.56  274272. 0.613
##  9 Spain       ESP      2017 46.4   2.94 1557162. 0.574
## 10 Finland     FIN      2017  5.52  3.47  216303. 0.576
## # … with 11 more rows
…
