OLS Regression Diagnostics
…
## 
##  Durbin-Watson test
## 
## data:  M1
## DW = 2.0721, p-value = 0.9259
## alternative hypothesis: true autocorrelation is greater than 0

In our case, since the Belgium data are a simple sample of a population, there doesnt seem to be any concern for serial correlation. The p-values above a particular threshold (i.e..05) mean the model is consistent with a null hypothesis of no autocorrelation.

If youre curious what it would look like to flunk one of these tests, lets use some fake data I created for precisely this purpose.

fakeTSD

## # A tibble: 100 x 5
##     year     y    x1    x2      e
##    <int> <dbl> <dbl> <dbl>  <dbl>
##  1  1920  501.  3.01     1 -0.319
##  2  1921  504.  6.44     1  0.915
##  3  1922  503.  3.77     0  1.42 
##  4  1923  502.  9.06     0 -1.10 
##  5  1924  503.  7.13     1 -0.605
##  6  1925  503.  6.97     1 -1.23 
##  7  1926  501.  5.05     0 -2.09 
##  8  1927  502.  6.35     0 -0.934
##  9  1928  504.  6.14     0  0.296
## 10  1929  504.  6.81     0 -0.398
## #  with 90 more rows
…
Potential Fixes for Heteroskedasticity

There is no shortage of fixes for heteroskedasticity. First, I want to bring in a new data set that I love using for this purpose because its super illustrative of what heteroskedasticity will look like in a simple case. af_crime93 comes via Table 9.1 of the 3rd edition of Agresti and Finlays Statistical Methods for the Social Sciences. The data come from the Statistical Abstract of the United States and most variables were measured in 1993.

I have this in the proto version of my {stevedata} package right now, but you can load it off the course website.

af_crime93 <- readRDS(url("http://post8000.svmiller.com/lab-scripts/af_crime93.rds"))
af_crime93

## # A tibble: 51 x 8
##    state violent murder poverty single metro white highschool
##    <chr>   <dbl>  <dbl>   <dbl>  <dbl> <dbl> <dbl>      <dbl>
##  1 AK        761   9       9.10   14.3  41.8  75.2       86.6
##  2 AL        780  11.6    17.4    11.5  67.4  73.5       66.9
##  3 AR        593  10.2    20      10.7  44.7  82.9       66.3
##  4 AZ        715   8.60   15.4    12.1  84.7  88.6       78.7
##  5 CA       1078  13.1    18.2    12.5  96.7  79.3       76.2
##  6 CO        567   5.80    9.90   12.1  81.8  92.5       84.4
##  7 CT        456   6.30    8.5    10.1  95.7  89         79.2
##  8 DE        686   5      10.2    11.4  82.7  79.4       77.5
##  9 FL       1206   8.90   17.8    10.6  93    83.5       74.4
## 10 GA        723  11.4    13.5    13    67.7  70.8       70.9
## #  with 41 more rows
…
Finally, we can do what I think is one of the greatest parlor tricks in statistics: bootstrapping. Im going to have to punt on the theory and exact principles of bootstrapping to classic texts, but the intuition here is, in the absence of a true population, to treat the sample as a population of sorts and sample, with replacement from that. Theres a lot more to say about this that I dont have the space here. If you have some complicated data structures, youll need to adjust your bootstrapping to account for that.

The {modelr} package will make the bootstrapping simpler for us. First, lets sample, with replacement, from the af_crime93 data 1,000 times. The data we have are small, so we cant get too crazy. Efron I think recommends 250-500, but 1,000 is a nice number that is often a nice target in the sampling framework.

set.seed(8675309) # Jenny, I got your number...

af_crime93 %>%
  bootstrap(1000) -> bootCrime

Notice we have 1,000 resamples of the original data.

bootCrime

## # A tibble: 1,000 x 2
##    strap      .id  
##    <list>     <chr>
##  1 <resample> 0001 
##  2 <resample> 0002 
##  3 <resample> 0003 
##  4 <resample> 0004 
##  5 <resample> 0005 
##  6 <resample> 0006 
##  7 <resample> 0007 
##  8 <resample> 0008 
##  9 <resample> 0009 
## 10 <resample> 0010 
## #  with 990 more rows

Heres the first one. Interestingly, Colorado appears in this five times. That seems like its oversampling Colorado, which it would be if this were our only resample. However, there will be cases where Colorado doesnt appear at all. Thats the idea here.

bootCrime %>% 
  slice(1) %>% # grab the first row in this special tbl
  pull(strap) %>% # focus on the resample, momentarily a full list
  as.data.frame() %>% # cough up the full data
  as_tibble() %>%
  arrange(state) %>% # arrange by state, for ease of reading
  select(-murder, -wts)

## # A tibble: 51 x 7
##    state violent poverty single metro white highschool
##    <chr>   <dbl>   <dbl>  <dbl> <dbl> <dbl>      <dbl>
##  1 AL        780   17.4    11.5  67.4  73.5       66.9
##  2 AR        593   20      10.7  44.7  82.9       66.3
##  3 CA       1078   18.2    12.5  96.7  79.3       76.2
##  4 CO        567    9.90   12.1  81.8  92.5       84.4
##  5 CO        567    9.90   12.1  81.8  92.5       84.4
##  6 CO        567    9.90   12.1  81.8  92.5       84.4
##  7 CO        567    9.90   12.1  81.8  92.5       84.4
##  8 CO        567    9.90   12.1  81.8  92.5       84.4
##  9 CT        456    8.5    10.1  95.7  89         79.2
## 10 DE        686   10.2    11.4  82.7  79.4       77.5
## #  with 41 more rows
…
